{
  "version": "1.1.1",
  "windows": {
    "main": {
      "main": true,
      "url": "app://editor/index.html",
      "windowType": "dockable",
      "x": 0,
      "y": 25,
      "width": 1792,
      "height": 1040,
      "layout": {
        "children": [
          {
            "children": [
              {
                "active": 0,
                "children": [
                  "hierarchy"
                ],
                "height": 330,
                "type": "panel",
                "width": 424
              },
              {
                "active": 0,
                "children": [
                  "assets",
                  "cloud-function"
                ],
                "height": 620,
                "type": "panel",
                "width": 424
              }
            ],
            "height": 953,
            "type": "dock-v",
            "width": 424
          },
          {
            "children": [
              {
                "children": [
                  {
                    "active": 0,
                    "children": [
                      "scene"
                    ],
                    "height": 645,
                    "type": "panel",
                    "width": 567.984375
                  },
                  {
                    "active": 0,
                    "children": [
                      "node-library"
                    ],
                    "height": 645,
                    "type": "panel",
                    "width": 367
                  }
                ],
                "height": 645,
                "type": "dock-h",
                "width": 938
              },
              {
                "active": 0,
                "children": [
                  "console",
                  "timeline",
                  "game-window"
                ],
                "height": 305,
                "type": "panel",
                "width": 938
              }
            ],
            "height": 953,
            "type": "dock-v",
            "width": 938
          },
          {
            "active": 0,
            "children": [
              "inspector",
              "cocos-services"
            ],
            "height": 953,
            "type": "panel",
            "width": 424
          }
        ],
        "type": "dock-h"
      },
      "panels": [
        "hierarchy",
        "assets",
        "cloud-function",
        "scene",
        "node-library",
        "console",
        "timeline",
        "game-window",
        "inspector",
        "cocos-services"
      ]
    }
  },
  "panels": {
    "project-settings": {
      "x": 0,
      "y": 0,
      "width": 1792,
      "height": 1120
    }
  },
  "panelLabelWidth": {
    "inspector": null
  }
}
