{
  "collision-matrix": [
    [
      true
    ]
  ],
  "excluded-modules": [
    "3D Physics/cannon.js",
    "3D Physics/Builtin",
    "3D Particle",
    "SafeArea"
  ],
  "group-list": [
    "default"
  ],
  "start-scene": "74cb35f3-f781-4b5a-8349-4eb47465c1a1",
  "design-resolution-width": 960,
  "design-resolution-height": 640,
  "fit-width": false,
  "fit-height": true,
  "use-project-simulator-setting": false,
  "simulator-orientation": false,
  "use-customize-simulator": true,
  "simulator-resolution": {
    "height": 640,
    "width": 960
  },
  "last-module-event-record-time": 0,
  "assets-sort-type": "name",
  "facebook": {
    "appID": "",
    "audience": {
      "enable": false
    },
    "enable": false,
    "live": {
      "enable": false
    }
  },
  "migrate-history": [
    "cloud-function"
  ],
  "preview-port": 7456,
  "clear-simulator-cache": true
}
